{
    "results": [{
        "vote_count": 2470,
        "id": 335983,
        "video": false,
        "vote_average": 6.5,
        "title": "Venom",
        "popularity": 368.719,
        "poster_path": "\/2uNW4WbgBXL25BAbXGLnLqX71Sw.jpg",
        "original_language": "en",
        "original_title": "Venom",
        "genre_ids": [878],
        "backdrop_path": "\/VuukZLgaCrho2Ar8Scl9HtV3yD.jpg",
        "adult": false,
        "overview": "Eddie Brock is a reporter, investigating people who want to go unnoticed. But after he makes a terrible discovery at the Life Foundation, he begins to transform into ‘Venom’.  The Foundation has discovered creatures called symbiotes, and believes they’re the key to the next step in human evolution. Unwittingly bonded with one, Eddie discovers he has incredible new abilities - and a voice in his head that’s telling him to embrace the darkness.  One of Marvel’s most celebrated anti-heroes comes to the big screen in ‘Venom’, starring Tom Hardy, Michelle Williams and Riz Ahmed.",
        "release_date": "2018-10-03"
    }],
    "page": 1,
    "total_results": 1127,
    "dates": {
        "maximum": "2018-12-04",
        "minimum": "2018-10-17"
    },
    "total_pages": 57
}
